{
    "name": "InitPaymentParam",
    "fields": [
        {
            "fieldName": "merchantId",
            "fieldType": "String",
            "fieldValidateRules": [
                "maxlength",
                "required"
            ],
            "fieldValidateRulesMaxlength": 32
        },
        {
            "fieldName": "orderId",
            "fieldType": "String",
            "fieldValidateRules": [
                "maxlength",
                "required"
            ],
            "fieldValidateRulesMaxlength": 128
        },
        {
            "fieldName": "userId",
            "fieldType": "String"
        },
        {
            "fieldName": "accountId",
            "fieldType": "String",
            "fieldValidateRules": [
                "maxlength"
            ],
            "fieldValidateRulesMaxlength": 125
        },
        {
            "fieldName": "ammount",
            "fieldType": "BigDecimal"
        },
        {
            "fieldName": "fee",
            "fieldType": "BigDecimal"
        },
        {
            "fieldName": "exponent",
            "fieldType": "Integer"
        },
        {
            "fieldName": "purchaseShortDesc",
            "fieldType": "String",
            "fieldValidateRules": [
                "maxlength"
            ],
            "fieldValidateRulesMaxlength": 30
        },
        {
            "fieldName": "purchaseLongDesc",
            "fieldType": "String",
            "fieldValidateRules": [
                "maxlength"
            ],
            "fieldValidateRulesMaxlength": 125
        }
    ],
    "relationships": [
        {
            "relationshipType": "one-to-one",
            "otherEntityName": "payment",
            "otherEntityRelationshipName": "initPaymentParam",
            "relationshipName": "payment",
            "otherEntityField": "id",
            "ownerSide": true
        },
        {
            "relationshipType": "one-to-many",
            "otherEntityName": "initPaymentOrderParam",
            "otherEntityRelationshipName": "initPaymentParam",
            "relationshipName": "initPaymentOrderParam"
        }
    ],
    "changelogDate": "20191020172744",
    "entityTableName": "init_payment_param",
    "dto": "no",
    "pagination": "no",
    "service": "serviceClass",
    "jpaMetamodelFiltering": false,
    "fluentMethods": true,
    "readOnly": false,
    "clientRootFolder": "",
    "applications": [
        "pgapaymicro",
        "pgapaygw"
    ],
    "microserviceName": "pgapaymicro"
}